,,,,
Job Offer,,,,
Champ,Visibility,Type,Valeurs,Note
Référence,Guest,Text,,
Nom de la société,Admin,Text,,
Nom Contact,Admin,Text,,
Email Contact,Admin,Email,,
Téléphone,Admin,Tel,,
Description,Guest,Text,,
Activé,Admin,Toggle,ON,
,,,OFF,
Notes,Admin,Text,,
,,,,
,,,,
Job title,Guest,Text,,
Job type,Guest,Select,Fulltime,
,,,Part time,
,,,Temporary,
,,,Freelance,
,,,Seasonal,
Location (optional),Guest,Text,,
Job category,Guest,Select,Commercial,
,,,Retail sales,
,,,Creative,
,,,Technology,
,,,Marketing & PR,
,,,Fashion & luxury,
,,,Management & HR,
Closing date (optional),Guest,Date,,
Salary (optional),Guest,Number,,
Date de création,Guest,Date,,